lab9/verilog/adder-output.txt
VCD info: dumpfile gtkwave-02.vcd opened for output.
a1 a0 b1 b0 | c s1 s0
---------------------
0  0  0  0  | 0  0  0
0  0  0  1  | 0  0  1
0  0  1  0  | 0  1  0
0  0  1  1  | 0  1  1
0  1  0  0  | 0  0  1
0  1  0  1  | 0  1  0
0  1  1  0  | 0  1  1
0  1  1  1  | 1  0  0
1  0  0  0  | 0  1  0
1  0  0  1  | 0  1  1
1  0  1  0  | 1  0  0
1  0  1  1  | 1  0  1
1  1  0  0  | 0  1  1
1  1  0  1  | 1  0  0
1  1  1  0  | 1  0  1
1  1  1  1  | 1  1  0
